…
This can also be read in as a "tidy" tibble, or converted after the reading it in as a list.

``` r
# read in as a tibble
read_gmt(kegg_path, tidy = TRUE)
#> # A tibble: 12,875 x 2
#>    gene_set                        gene 
#>    <chr>                           <chr>
#>  1 KEGG_GLYCOLYSIS_GLUCONEOGENESIS ACSS2
#>  2 KEGG_GLYCOLYSIS_GLUCONEOGENESIS GCK  
#>  3 KEGG_GLYCOLYSIS_GLUCONEOGENESIS PGK2 
#>  4 KEGG_GLYCOLYSIS_GLUCONEOGENESIS PGK1 
#>  5 KEGG_GLYCOLYSIS_GLUCONEOGENESIS PDHB 
#>  6 KEGG_GLYCOLYSIS_GLUCONEOGENESIS PDHA1
#>  7 KEGG_GLYCOLYSIS_GLUCONEOGENESIS PDHA2
#>  8 KEGG_GLYCOLYSIS_GLUCONEOGENESIS PGM2 
#>  9 KEGG_GLYCOLYSIS_GLUCONEOGENESIS TPI1 
#> 10 KEGG_GLYCOLYSIS_GLUCONEOGENESIS ACSS1
#> # … with 12,865 more rows

# convert from list format to tibble
tidy_gmt(kegg)
#> # A tibble: 12,875 x 2
#>    gene_set                        gene 
#>    <chr>                           <chr>
#>  1 KEGG_GLYCOLYSIS_GLUCONEOGENESIS ACSS2
#>  2 KEGG_GLYCOLYSIS_GLUCONEOGENESIS GCK  
#>  3 KEGG_GLYCOLYSIS_GLUCONEOGENESIS PGK2 
#>  4 KEGG_GLYCOLYSIS_GLUCONEOGENESIS PGK1 
#>  5 KEGG_GLYCOLYSIS_GLUCONEOGENESIS PDHB 
#>  6 KEGG_GLYCOLYSIS_GLUCONEOGENESIS PDHA1
#>  7 KEGG_GLYCOLYSIS_GLUCONEOGENESIS PDHA2
#>  8 KEGG_GLYCOLYSIS_GLUCONEOGENESIS PGM2 
#>  9 KEGG_GLYCOLYSIS_GLUCONEOGENESIS TPI1 
#> 10 KEGG_GLYCOLYSIS_GLUCONEOGENESIS ACSS1
#> # … with 12,865 more rows
```
